…
``` r
# first check if any country-year has data for more than one temporal resolution
data %>%
  mutate(temporal_res_nm = ifelse(temporal_res==2, "Weekly", 
                         ifelse(temporal_res==1, "Monthly", "Yearly")))%>%
  group_by(adm_0_name, year, temporal_res_nm)%>%
  tally()%>%
  mutate(n2 = ifelse(is.na(n)==FALSE, 1, NA))%>% select(-n)%>% 
  spread(., temporal_res_nm, n2)%>%
  mutate(total = Weekly+Monthly+Yearly) %>%
  arrange(desc(total)) #Data for Nicaragua (2004-2005) include different temporal resolutions 
```

    ## # A tibble: 1,797 × 6
    ## # Groups:   adm_0_name, year [1,797]
    ##    adm_0_name  year Monthly Weekly Yearly total
    ##    <fct>      <int>   <dbl>  <dbl>  <dbl> <dbl>
    ##  1 Nicaragua   2004       1      1      1     3
    ##  2 Nicaragua   2005       1      1      1     3
    ##  3 Canada      2009      NA     NA      1    NA
    ##  4 Canada      2012      NA     NA      1    NA
    ##  5 Canada      2014      NA      1     NA    NA
    ##  6 Canada      2015      NA      1     NA    NA
    ##  7 Canada      2016      NA      1     NA    NA
    ##  8 Canada      2017      NA      1     NA    NA
    ##  9 Canada      2018      NA      1     NA    NA
    ## 10 Canada      2019      NA      1     NA    NA
    ## # … with 1,787 more rows
…
``` r
# first check if any country-year has data for more than one spatial resolution
data %>%
  mutate(spatial_res_nm = ifelse(spatial_res==2, "adm2", 
                         ifelse(spatial_res==1, "adm1", "adm0")))%>%
  group_by(adm_0_name, year, spatial_res_nm)%>%
  tally()%>%
  mutate(n2 = ifelse(is.na(n)==FALSE, 1, NA))%>% select(-n)%>% 
  spread(., spatial_res_nm, n2)%>%
  mutate(total = adm2+adm1+adm0) %>%
  arrange(desc(total)) #Data for Brazil (2001-2005) include different spatial resolutions 
```

    ## # A tibble: 1,797 × 6
    ## # Groups:   adm_0_name, year [1,797]
    ##    adm_0_name  year  adm0  adm1  adm2 total
    ##    <fct>      <int> <dbl> <dbl> <dbl> <dbl>
    ##  1 Brazil      2001     1     1     1     3
    ##  2 Brazil      2002     1     1     1     3
    ##  3 Brazil      2003     1     1     1     3
    ##  4 Brazil      2004     1     1     1     3
    ##  5 Brazil      2005     1     1     1     3
    ##  6 Canada      2009     1    NA    NA    NA
    ##  7 Canada      2012     1    NA    NA    NA
    ##  8 Canada      2014     1    NA    NA    NA
    ##  9 Canada      2015     1    NA    NA    NA
    ## 10 Canada      2016     1    NA    NA    NA
    ## # … with 1,787 more rows
…
``` r
# first check if any country-year has data for more than one data source
data %>%
  group_by(adm_0_name, year, source_cat)%>%
  tally()%>% 
  mutate(n2 = ifelse(is.na(n)==FALSE, 1, NA))%>% select(-n)%>% 
  spread(., source_cat, n2)%>%
  mutate(paho_tot = ifelse(sum(c_across(paho_adm0:paho_imputed), na.rm=T)>0, 1, NA))%>% 
  select(-paho_adm0, -paho_imputed)%>%
  mutate(total = sum(c_across(moh:paho_tot), na.rm = T)) %>%
  arrange(desc(total)) 
```

    ## # A tibble: 1,797 × 7
    ## # Groups:   adm_0_name, year [1,797]
    ##    adm_0_name                year   moh paho_sub tycho paho_tot total
    ##    <fct>                    <int> <dbl>    <dbl> <dbl>    <dbl> <dbl>
    ##  1 United States of America  2015    NA       NA     1        1     2
    ##  2 United States of America  2016    NA       NA     1        1     2
    ##  3 United States of America  2017    NA       NA     1        1     2
    ##  4 Costa Rica                2015    NA        1    NA        1     2
    ##  5 Costa Rica                2016    NA        1    NA        1     2
    ##  6 Costa Rica                2017    NA        1    NA        1     2
    ##  7 Costa Rica                2018    NA        1    NA        1     2
    ##  8 Guatemala                 2007     1       NA     1       NA     2
    ##  9 Guatemala                 2008     1       NA     1       NA     2
    ## 10 Guatemala                 2009     1       NA     1       NA     2
    ## # … with 1,787 more rows
…
